NAME : S-n06-k2-t
COMMENT : (optval = 265 | Adapted from cvrplib.A-n37-k5.vrp in Pessoa et al (2020) | q(N) = 56, k(N) = 2 | Equals toy.vrp instance distributed with vrpsolver)
TYPE : CVRP
DIMENSION : 6
EDGE_WEIGHT_TYPE : EUC_2D
CAPACITY : 30
NODE_COORD_SECTION
 1 38 46
 2 59 46
 3 96 42
 4 47 61
 5 26 15
 6 66 6
DEMAND_SECTION
1 0
2 16
3 18
4 1
5 13
6 8
DEPOT_SECTION
 1
 -1
EOF
