NAME : SQ-n08-k2
COMMENT : (k = 2, author = Mauro Henrique Mulati, date = 01-jun-2018)
TYPE : ROBUSTVRPSB
DIMENSION : 8
EDGE_WEIGHT_TYPE : EUC_2D
CAPACITY : 10
NODE_COORD_SECTION
 1 100 100
 2  30  50
 3  80   0
 4 120  60
 5 180  40
 6 140 140
 7  80  80
 8 120  80
DEMAND_SECTION
 1  0
 2  1
 3  2
 4  3
 5  4
 6  5
 7  0
 8  0
DEPOT_SECTION
  1
 -1
BACKHAUL_SECTION
 7 300  5
 8 500  7
-1  -1 -1
EOF
